ds202_hw6
…
kib1$'size category' <- factor(kib1$'size category', levels = c("small", "medium", "large"))
kib1$'Intelligence' <- as.factor(kib1$'Intelligence')
kib1$'Intelligence' <- factor(kib1$'Intelligence', levels = c('Dumb', 'Clever'))
kib2 <- left_join(kib1, bis1, by = 'Dog breed')
kib2 <- kib2 %>% select(-c(category.y, `size category.y`, `intelligence category.y`))
kib2$`intelligence category.x`[kib2$`intelligence category.x` == "no data"] <- NA
kib2$`popularity ranking` <- as.numeric(kib2$`popularity ranking`)
kib2 <- kib2 %>% rename(`size` = `size category.x`)
kib2 <- kib2 %>% rename('type' ='category.x')
kib2 <- kib2 %>% rename('intelligence category' = 'intelligence category.x')
kib2 <- kib2 %>% rename('score' = 'datadog score')
kib2 <- kib2 %>% rename('popularity' = 'popularity ranking')
kib2

## # A tibble: 175 x 8
##    `Dog breed` type  score size  `intelligence c Intelligence popularity
##    <chr>       <chr> <dbl> <fct> <fct>            <fct>             <dbl>
##  1 Dog breed   Amer NA    <NA>  <NA>             <NA>                 NA
##  2 Border Col herd  3.64 medi Brightest        Clever               45
##  3 Border Ter terr  3.61 small Above average    Clever               80
##  4 Brittany    spor  3.54 medi Excellent        Clever               30
##  5 Cairn Terr terr  3.53 small Above average    Clever               59
##  6 Welsh Spri spor  3.34 medi Above average    Clever              130
##  7 English Co spor  3.33 medi Excellent        Clever               63
##  8 Cocker Spa spor  3.3  small Excellent        Clever               27
##  9 Papillon    toy    3.26 small Brightest        Clever               38
## 10 Australian herd  3.25 medi Brightest        Clever               60
## #  with 165 more rows, and 1 more variable: `intelligence ranking` <chr>
…
